module github.com/mrlyc/cmdr

go 1.17

require (
	github.com/ahmetb/go-linq/v3 v3.2.0
	github.com/asdine/storm/v3 v3.2.1
	github.com/fsnotify/fsnotify v1.5.1 // indirect
	github.com/golang/mock v1.6.0
	github.com/google/go-github/v39 v39.1.1-0.20211008144426-6b0f37fa430d
	github.com/gookit/color v1.4.2
	github.com/hashicorp/go-getter v1.5.11
	github.com/hashicorp/go-multierror v1.1.1
	github.com/homedepot/flop v0.1.6
	github.com/jaswdr/faker v1.10.2
	github.com/muesli/termenv v0.9.0
	github.com/onsi/ginkgo v1.16.5
	github.com/onsi/gomega v1.17.0
	github.com/pkg/errors v0.9.1
	github.com/schollz/progressbar/v3 v3.8.6
	github.com/spf13/cast v1.3.1
	github.com/spf13/cobra v1.2.1
	github.com/spf13/viper v1.8.1
	go.etcd.io/bbolt v1.3.6 // indirect
	golang.org/x/net v0.0.0-20211123203042-d83791d6bcd9 // indirect
	golang.org/x/sys v0.0.0-20220207234003-57398862261d // indirect
	golang.org/x/tools v0.1.9 // indirect
	gopkg.in/yaml.v2 v2.4.0
	logur.dev/adapter/template v0.0.0-20200428192559-245bae87f59a
	logur.dev/logur v0.17.0
)

require (
	cloud.google.com/go v0.81.0 // indirect
	cloud.google.com/go/storage v1.10.0 // indirect
	github.com/aws/aws-sdk-go v1.15.78 // indirect
	github.com/bgentry/go-netrc v0.0.0-20140422174119-9fd32a8b3d3d // indirect
	github.com/golang/groupcache v0.0.0-20200121045136-8c9f03a8e57e // indirect
	github.com/golang/protobuf v1.5.2 // indirect
	github.com/google/go-querystring v1.1.0 // indirect
	github.com/googleapis/gax-go/v2 v2.0.5 // indirect
	github.com/hashicorp/errwrap v1.0.0 // indirect
	github.com/hashicorp/go-cleanhttp v0.5.2 // indirect
	github.com/hashicorp/go-safetemp v1.0.0 // indirect
	github.com/hashicorp/go-version v1.1.0 // indirect
	github.com/hashicorp/hcl v1.0.0 // indirect
	github.com/inconshreveable/mousetrap v1.0.0 // indirect
	github.com/jmespath/go-jmespath v0.0.0-20160202185014-0b12d6b521d8 // indirect
	github.com/jstemmer/go-junit-report v0.9.1 // indirect
	github.com/klauspost/compress v1.11.2 // indirect
	github.com/lucasb-eyer/go-colorful v1.2.0 // indirect
	github.com/magiconair/properties v1.8.5 // indirect
	github.com/mattn/go-isatty v0.0.14 // indirect
	github.com/mattn/go-runewidth v0.0.13 // indirect
	github.com/mitchellh/colorstring v0.0.0-20190213212951-d06e56a500db // indirect
	github.com/mitchellh/go-homedir v1.0.0 // indirect
	github.com/mitchellh/go-testing-interface v1.0.0 // indirect
	github.com/mitchellh/mapstructure v1.4.1 // indirect
	github.com/nxadm/tail v1.4.8 // indirect
	github.com/pelletier/go-toml v1.9.3 // indirect
	github.com/rivo/uniseg v0.2.0 // indirect
	github.com/spf13/afero v1.6.0 // indirect
	github.com/spf13/jwalterweatherman v1.1.0 // indirect
	github.com/spf13/pflag v1.0.5 // indirect
	github.com/subosito/gotenv v1.2.0 // indirect
	github.com/ulikunitz/xz v0.5.8 // indirect
	github.com/xo/terminfo v0.0.0-20210125001918-ca9a967f8778 // indirect
	go.opencensus.io v0.23.0 // indirect
	golang.org/x/crypto v0.0.0-20220131195533-30dcbda58838 // indirect
	golang.org/x/lint v0.0.0-20210508222113-6edffad5e616 // indirect
	golang.org/x/mod v0.5.1 // indirect
	golang.org/x/oauth2 v0.0.0-20210402161424-2e8d93401602 // indirect
	golang.org/x/term v0.0.0-20210927222741-03fcf44c2211 // indirect
	golang.org/x/text v0.3.7 // indirect
	golang.org/x/xerrors v0.0.0-20200804184101-5ec99f83aff1 // indirect
	google.golang.org/api v0.44.0 // indirect
	google.golang.org/appengine v1.6.7 // indirect
	google.golang.org/genproto v0.0.0-20210602131652-f16073e35f0c // indirect
	google.golang.org/grpc v1.38.0 // indirect
	google.golang.org/protobuf v1.26.0 // indirect
	gopkg.in/ini.v1 v1.62.0 // indirect
	gopkg.in/tomb.v1 v1.0.0-20141024135613-dd632973f1e7 // indirect
)
